HW10
…
10.1 - Reshaping data

gap_wide <- gapminder::gapminder |> 
  select(continent, country, year, lifeExp, gdpPercap, pop) |> 
  pivot_wider(
    names_from = year, 
    values_from = c(lifeExp, gdpPercap, pop), 
    names_sep = ""
  )

gap_wide

# A tibble: 142 × 38
   continent country lifeExp1952 lifeExp1957 lifeExp1962 lifeExp1967 lifeExp1972
   <fct>     <fct>         <dbl>       <dbl>       <dbl>       <dbl>       <dbl>
 1 Asia      Afghan…        28.8        30.3        32.0        34.0        36.1
 2 Europe    Albania        55.2        59.3        64.8        66.2        67.7
 3 Africa    Algeria        43.1        45.7        48.3        51.4        54.5
 4 Africa    Angola         30.0        32.0        34          36.0        37.9
 5 Americas  Argent…        62.5        64.4        65.1        65.6        67.1
 6 Oceania   Austra…        69.1        70.3        70.9        71.1        71.9
 7 Europe    Austria        66.8        67.5        69.5        70.1        70.6
 8 Asia      Bahrain        50.9        53.8        56.9        59.9        63.3
 9 Asia      Bangla…        37.5        39.3        41.2        43.5        45.3
10 Europe    Belgium        68          69.2        70.2        70.9        71.4
# ℹ 132 more rows
# ℹ 31 more variables: lifeExp1977 <dbl>, lifeExp1982 <dbl>, lifeExp1987 <dbl>,
#   lifeExp1992 <dbl>, lifeExp1997 <dbl>, lifeExp2002 <dbl>, lifeExp2007 <dbl>,
#   gdpPercap1952 <dbl>, gdpPercap1957 <dbl>, gdpPercap1962 <dbl>,
#   gdpPercap1967 <dbl>, gdpPercap1972 <dbl>, gdpPercap1977 <dbl>,
#   gdpPercap1982 <dbl>, gdpPercap1987 <dbl>, gdpPercap1992 <dbl>,
#   gdpPercap1997 <dbl>, gdpPercap2002 <dbl>, gdpPercap2007 <dbl>, …
…
Use the panelr package to turn the gap_long into gap_wide, replicating pivot_wider()

gap_wide <- widen_panel(gap_long)
gap_wide

# A tibble: 142 × 39
   id    continent country     lifeExp_1952 gdpPercap_1952 pop_1952 lifeExp_1957
   <fct> <fct>     <fct>              <dbl>          <dbl>    <int>        <dbl>
 1 1     Asia      Afghanistan         28.8           779.  8425333         30.3
 2 2     Europe    Albania             55.2          1601.  1282697         59.3
 3 3     Africa    Algeria             43.1          2449.  9279525         45.7
 4 4     Africa    Angola              30.0          3521.  4232095         32.0
 5 5     Americas  Argentina           62.5          5911. 17876956         64.4
 6 6     Oceania   Australia           69.1         10040.  8691212         70.3
 7 7     Europe    Austria             66.8          6137.  6927772         67.5
 8 8     Asia      Bahrain             50.9          9867.   120447         53.8
 9 9     Asia      Bangladesh          37.5           684. 46886859         39.3
10 10    Europe    Belgium             68            8343.  8730405         69.2
# ℹ 132 more rows
# ℹ 32 more variables: gdpPercap_1957 <dbl>, pop_1957 <int>,
#   lifeExp_1962 <dbl>, gdpPercap_1962 <dbl>, pop_1962 <int>,
#   lifeExp_1967 <dbl>, gdpPercap_1967 <dbl>, pop_1967 <int>,
#   lifeExp_1972 <dbl>, gdpPercap_1972 <dbl>, pop_1972 <int>,
#   lifeExp_1977 <dbl>, gdpPercap_1977 <dbl>, pop_1977 <int>,
#   lifeExp_1982 <dbl>, gdpPercap_1982 <dbl>, pop_1982 <int>, …
…
