HW9
…
m_lm <- lm(form, data = d_r)
m_lm_cont_polviews <- lm(form_cont_polviews, data = d_r)

Checking out model, ATE:

tidy(m_lm_cont_polviews, cof.int = TRUE) |> filter(term == "polviews")

# A tibble: 1 × 5
  term     estimate std.error statistic  p.value
  <chr>       <dbl>     <dbl>     <dbl>    <dbl>
1 polviews    0.308    0.0223      13.8 2.05e-40

tidy(m_lm, conf.int = TRUE)

# A tibble: 44 × 7
   term              estimate std.error statistic  p.value conf.low conf.high
   <chr>                <dbl>     <dbl>     <dbl>    <dbl>    <dbl>     <dbl>
 1 (Intercept)        1.36       0.548     2.48   1.31e- 2  0.286       2.44 
 2 factor(polviews)2  0.301      0.155     1.94   5.31e- 2 -0.00404     0.606
 3 factor(polviews)3  0.804      0.164     4.91   1.05e- 6  0.483       1.13 
 4 factor(polviews)4  1.13       0.148     7.63   4.86e-14  0.840       1.42 
 5 factor(polviews)5  1.23       0.163     7.54   9.23e-14  0.909       1.55 
 6 factor(polviews)6  1.63       0.160    10.2    2.95e-23  1.31        1.94 
 7 factor(polviews)7  1.87       0.199     9.36   3.90e-20  1.48        2.26 
 8 factor(padeg)1     0.123      0.0902    1.36   1.74e- 1 -0.0544      0.300
 9 factor(padeg)2    -0.00928    0.180    -0.0516 9.59e- 1 -0.362       0.344
10 factor(padeg)3     0.0299     0.122     0.244  8.07e- 1 -0.210       0.270
# ℹ 34 more rows
…
